[
    {
        "_id": "61fb8fc8a558f363b47bcc01",
        "name": "Cal Newport",
        "email": "cal@example.com",
        "password": "1234567"
    },
    {
        "_id": "61fb8fc8a558f363b47bcc02",
        "name": "Dale Carnegie",
        "email": "dale@example.com",
        "password": "1234567"
    },
    {
        "_id": "61fb8fc8a558f363b47bcc03",
        "name": "Mitch Albom",
        "email": "mitch@example.com",
        "password": "1234567"
    },
    {
        "_id": "61fb8fc8a558f363b47bcc04",
        "name": "Dan Brown",
        "email": "dan@example.com",
        "password": "1234567"
    },
    {
        "_id": "61fb8fc8a558f363b47bcc05",
        "name": "Marissa Meyer",
        "email": "marissa@example.com",
        "password": "1234567"
    }
]